{
  "compilerOptions": {
    "baseUrl": "./",
    "paths": {
      "~/*": ["./src/*"],
      "@components/*": ["./src/components/*"],
      "@pages/*": ["./src/pages/*"],
      "@styles/*": ["./src/styles/*"],
      "@utils/*": ["./src/utils/*"],
      "@constants/*": ["./src/constants/*"]
    }
  }
}